…
mean_sd(gapminder, country, gdpPercap)
```

    ## # A tibble: 1,704 × 8
    ## # Groups:   country [142]
    ##    country     continent  year lifeExp      pop gdpPercap mean_value sd_value
    ##    <fct>       <fct>     <int>   <dbl>    <int>     <dbl>      <dbl>    <dbl>
    ##  1 Afghanistan Asia       1952    28.8  8425333      779.       803.     108.
    ##  2 Afghanistan Asia       1957    30.3  9240934      821.       803.     108.
    ##  3 Afghanistan Asia       1962    32.0 10267083      853.       803.     108.
    ##  4 Afghanistan Asia       1967    34.0 11537966      836.       803.     108.
    ##  5 Afghanistan Asia       1972    36.1 13079460      740.       803.     108.
    ##  6 Afghanistan Asia       1977    38.4 14880372      786.       803.     108.
    ##  7 Afghanistan Asia       1982    39.9 12881816      978.       803.     108.
    ##  8 Afghanistan Asia       1987    40.8 13867957      852.       803.     108.
    ##  9 Afghanistan Asia       1992    41.7 16317921      649.       803.     108.
    ## 10 Afghanistan Asia       1997    41.8 22227415      635.       803.     108.
    ## # … with 1,694 more rows
…
``` r
#Example 2

mean_sd(gapminder, continent, pop)
```

    ## # A tibble: 1,704 × 8
    ## # Groups:   continent [5]
    ##    country     continent  year lifeExp      pop gdpPercap mean_value   sd_value
    ##    <fct>       <fct>     <int>   <dbl>    <int>     <dbl>      <dbl>      <dbl>
    ##  1 Afghanistan Asia       1952    28.8  8425333      779.  77038722. 206885205.
    ##  2 Afghanistan Asia       1957    30.3  9240934      821.  77038722. 206885205.
    ##  3 Afghanistan Asia       1962    32.0 10267083      853.  77038722. 206885205.
    ##  4 Afghanistan Asia       1967    34.0 11537966      836.  77038722. 206885205.
    ##  5 Afghanistan Asia       1972    36.1 13079460      740.  77038722. 206885205.
    ##  6 Afghanistan Asia       1977    38.4 14880372      786.  77038722. 206885205.
    ##  7 Afghanistan Asia       1982    39.9 12881816      978.  77038722. 206885205.
    ##  8 Afghanistan Asia       1987    40.8 13867957      852.  77038722. 206885205.
    ##  9 Afghanistan Asia       1992    41.7 16317921      649.  77038722. 206885205.
    ## 10 Afghanistan Asia       1997    41.8 22227415      635.  77038722. 206885205.
    ## # … with 1,694 more rows
…
